^E:\GROUP8_HOOKPROJECT\DEBUG\SPY.LIB|E:\GROUP8_HOOKPROJECT\SPY_EXE\DEBUG\SPY_EXE.OBJ|E:\GROUP8_HOOKPROJECT\SPY_EXE\DEBUG\SPY_EXE.RES|E:\GROUP8_HOOKPROJECT\SPY_EXE\DEBUG\STDAFX.OBJ|E:\GROUP8_HOOKPROJECT\SPY_EXE\DEBUG\USER_INTERFACE.OBJ
E:\GROUP8_HOOKPROJECT\DEBUG\SPY_EXE.EXE
E:\GROUP8_HOOKPROJECT\DEBUG\SPY_EXE.ILK
E:\GROUP8_HOOKPROJECT\DEBUG\SPY_EXE.PDB
